
<svg xmlns="http://www.w3.org/2000/svg" viewBox="0 0 12 20" width="9" height="15">
	<defs>
	</defs>
	<path id="Icon" style="opacity: 0.89;fill-opacity: NaN;fill: #4c4f51" d="M11.27,8.03l-6.99,-7.26c-2.25,-2.34 -5.76,1.26 -3.51,3.59c1.76,1.84 3.52,3.67 5.29,5.5c-1.78,1.92 -3.56,3.84 -5.34,5.75c-2.21,2.38 1.3,5.99 3.51,3.6c2.35,-2.52 4.7,-5.05 7.04,-7.58c0.95,-1.01 0.95,-2.59 0,-3.6z" />
</svg>